Quartus/askisi1/simulation/qsim/askisi1.msim.vcd
$comment
	File created using the following command:
		vcd file askisi1.msim.vcd -direction
$end
$date
	Mon Apr 12 22:34:04 2021
$end
$version
	ModelSim Version 10.5b
$end
$timescale
	1ps
$end

$scope module askisi1_vhd_vec_tst $end
$var wire 1 ! f $end
$var wire 1 " x1 $end
$var wire 1 # x2 $end
$var wire 1 $ x3 $end
$var wire 1 % x4 $end
$var wire 1 & x5 $end

$scope module i1 $end
$var wire 1 ' gnd $end
$var wire 1 ( vcc $end
$var wire 1 ) unknown $end
$var wire 1 * devoe $end
$var wire 1 + devclrn $end
$var wire 1 , devpor $end
$var wire 1 - ww_devoe $end
$var wire 1 . ww_devclrn $end
$var wire 1 / ww_devpor $end
$var wire 1 0 ww_x1 $end
$var wire 1 1 ww_x2 $end
$var wire 1 2 ww_x3 $end
$var wire 1 3 ww_x4 $end
$var wire 1 4 ww_x5 $end
$var wire 1 5 ww_f $end
$var wire 1 6 \x5~combout\ $end
$var wire 1 7 \x3~combout\ $end
$var wire 1 8 \x4~combout\ $end
$var wire 1 9 \I5|out1~0_combout\ $end
$var wire 1 : \x1~combout\ $end
$var wire 1 ; \x2~combout\ $end
$var wire 1 < \I5|out1~1_combout\ $end
$upscope $end
$upscope $end
$enddefinitions $end
#0
$dumpvars
1!
0"
0#
0$
0%
0&
0'
1(
x)
1*
1+
1,
1-
1.
1/
00
01
02
03
04
15
06
07
08
09
0:
0;
1<
$end
#5000
1&
14
16
#10000
0&
1%
04
13
18
06
#15000
1&
14
16
19
0<
05
0!
#20000
0&
0%
1$
04
03
12
17
08
06
09
1<
15
1!
#25000
1&
14
16
#30000
0&
1%
04
13
18
06
19
0<
05
0!
#35000
1&
14
16
#40000
0&
0%
0$
1#
04
03
02
11
1;
07
08
06
09
1<
15
1!
#45000
1&
14
16
0<
05
0!
#50000
0&
1%
04
13
18
06
1<
15
1!
#55000
1&
14
16
19
0<
05
1<
0!
15
1!
#60000
0&
0%
1$
04
03
12
17
08
06
09
#65000
1&
14
16
0<
05
0!
#70000
0&
1%
04
13
18
06
1<
19
15
1!
#75000
1&
14
16
#80000
0&
0%
0$
0#
1"
04
03
02
01
10
1:
0;
07
08
06
09
0<
05
1<
0!
15
1!
#85000
1&
14
16
0<
05
0!
#90000
0&
1%
04
13
18
06
1<
15
1!
#95000
1&
14
16
19
0<
05
0!
#100000
0&
0%
1$
04
03
12
17
08
06
09
1<
15
1!
#105000
1&
14
16
0<
05
0!
#110000
0&
1%
04
13
18
06
1<
19
0<
15
1!
05
0!
#115000
1&
14
16
#120000
0&
0%
0$
1#
04
03
02
11
1;
07
08
06
09
1<
15
1!
#125000
1&
14
16
0<
05
0!
#130000
0&
1%
04
13
18
06
1<
15
1!
#135000
1&
14
16
19
0<
05
1<
0!
15
1!
#140000
0&
0%
1$
04
03
12
17
08
06
0<
09
1<
05
0!
15
1!
#145000
1&
14
16
0<
05
0!
#150000
0&
1%
04
13
18
06
1<
19
0<
15
1!
05
0!
#155000
1&
14
16
1<
15
1!
