Quartus2h/ergasia2h(Part1)/simulation/qsim/ergasia2h.msim.vcd
$comment
	File created using the following command:
		vcd file ergasia2h.msim.vcd -direction
$end
$date
	Thu May 27 19:51:05 2021
$end
$version
	ModelSim Version 10.5b
$end
$timescale
	1ps
$end

$scope module proto2h_vhd_vec_tst $end
$var wire 1 ! a $end
$var wire 1 " AInvert $end
$var wire 1 # b $end
$var wire 1 $ BInvert $end
$var wire 1 % CarryIn $end
$var wire 1 & CarryOut $end
$var wire 1 ' f $end
$var wire 1 ( Operation [1] $end
$var wire 1 ) Operation [0] $end

$scope module i1 $end
$var wire 1 * gnd $end
$var wire 1 + vcc $end
$var wire 1 , unknown $end
$var wire 1 - devoe $end
$var wire 1 . devclrn $end
$var wire 1 / devpor $end
$var wire 1 0 ww_devoe $end
$var wire 1 1 ww_devclrn $end
$var wire 1 2 ww_devpor $end
$var wire 1 3 ww_a $end
$var wire 1 4 ww_b $end
$var wire 1 5 ww_AInvert $end
$var wire 1 6 ww_BInvert $end
$var wire 1 7 ww_CarryIn $end
$var wire 1 8 ww_Operation [1] $end
$var wire 1 9 ww_Operation [0] $end
$var wire 1 : ww_f $end
$var wire 1 ; ww_CarryOut $end
$var wire 1 < \BInvert~combout\ $end
$var wire 1 = \b~combout\ $end
$var wire 1 > \MUX_2B|rsltb~0_combout\ $end
$var wire 1 ? \a~combout\ $end
$var wire 1 @ \CarryIn~combout\ $end
$var wire 1 A \MUX_4|Mux0~0_combout\ $end
$var wire 1 B \AInvert~combout\ $end
$var wire 1 C \MUX_4|Mux0~1_combout\ $end
$var wire 1 D \MUX_4|Mux0~2_combout\ $end
$var wire 1 E \ADD1|cout~0_combout\ $end
$var wire 1 F \Operation~combout\ [1] $end
$var wire 1 G \Operation~combout\ [0] $end
$upscope $end
$upscope $end
$enddefinitions $end
#0
$dumpvars
0!
0"
0#
0$
0%
0&
0'
0*
1+
x,
1-
1.
1/
10
11
12
03
04
05
06
07
0:
0;
0<
0=
0>
0?
0@
0A
0B
0C
0D
0E
1(
1)
18
19
1F
1G
$end
#40000
1#
14
1=
1>
1A
1C
1D
1:
1'
#80000
0#
1!
04
13
1?
0=
0>
0A
0C
1E
1;
1C
0D
0E
1&
0:
1D
0;
0'
0&
1:
1'
#120000
1#
14
1=
1>
1A
0C
1E
1;
0D
1&
0:
0'
#160000
0#
0!
04
03
0?
0=
0>
0A
1C
0E
0;
0C
1D
0&
1:
0D
1'
0:
0'
#200000
1#
14
1=
1>
1A
1C
1D
1:
1'
#240000
0#
1!
04
13
1?
0=
0>
0A
0C
1E
1;
1C
0D
0E
1&
0:
1D
0;
0'
0&
1:
1'
#280000
1#
14
1=
1>
1A
0C
1E
1;
0D
1&
0:
0'
#320000
0#
0!
04
03
0?
0=
0>
0A
1C
0E
0;
0C
1D
0&
1:
0D
1'
0:
0'
#360000
1#
14
1=
1>
1A
1C
1D
1:
1'
#400000
0#
1!
1"
1$
04
13
15
16
1<
1B
1?
0=
#440000
1#
14
1=
0>
0A
0C
0D
0:
0'
#480000
0#
0!
04
03
0?
0=
1>
1A
1C
0C
1D
1E
1;
1:
0D
1&
1'
0:
0'
#520000
1#
14
1=
0>
0A
1C
0E
0;
1D
0&
1:
1'
#560000
0#
1!
04
13
1?
0=
1>
1A
0C
1C
0D
0:
1D
0'
1:
1'
#600000
1#
14
1=
0>
0A
0C
0D
0:
0'
#640000
0#
0!
04
03
0?
0=
1>
1A
1C
0C
1D
1E
1;
1:
0D
1&
1'
0:
0'
#680000
1#
14
1=
0>
0A
1C
0E
0;
1D
0&
1:
1'
#720000
0#
1!
04
13
1?
0=
1>
1A
0C
1C
0D
0:
1D
0'
1:
1'
#760000
1#
14
1=
0>
0A
0C
0D
0:
0'
